documento
…
1.13. Premuestreo

No se realizará premuestreo por las siguientes razones:

Simplicidad del experimento: El diseño experimental es directo y no implica procedimientos complicados. Consiste en encender velas con diferentes longitudes de mecha y medir la duración de la combustión. Dado que el procedimiento es simple y fácil de ejecutar, no se requiere una fase preliminar de recolección de datos para ajustar o validar el método experimental.

Condiciones experimentales bien definidas: Las condiciones del experimento, como el ambiente de prueba y los materiales utilizados, son conocidas y estables. Se llevará a cabo en un entorno controlado y las velas utilizadas serán consistentes en calidad y composición. Por lo tanto, se puede tener confianza en la replicabilidad de los resultados sin la necesidad de un premuestreo para ajustar o validar estas condiciones.

Recursos limitados: Los recursos disponibles, como tiempo, dinero y personal, son limitados.

2. Análisis

2.1 Datos

# A tibble: 50 × 6
   orden tratamiento convoluciones filtros densa exactitud
   <dbl> <chr>       <fct>         <fct>   <fct>     <dbl>
 1     1 C1_F4_D64   1             4       64         81.0
 2     2 C1_F4_D128  1             4       128        85.4
 3     3 C1_F16_D64  1             16      64         85.9
 4     4 C1_F16_D128 1             16      128        90.9
 5     5 C2_F4_D64   2             4       64         76.5
 6     6 C2_F4_D128  2             4       128        84.9
 7     7 C2_F16_D64  2             16      64         92.3
 8     8 C2_F16_D128 2             16      128        96.5
 9     9 C1_F4_D64   1             4       64         82.1
10    10 C1_F4_D128  1             4       128        86.7
# ℹ 40 more rows
…
